Lab_6/ese6/transcript
# //  Questa Sim-64
# //  Version 10.7c linux_x86_64 Aug 17 2018
# //
# //  Copyright 1991-2018 Mentor Graphics Corporation
# //  All Rights Reserved.
# //
# //  QuestaSim and its associated documentation contain trade
# //  secrets and commercial or financial information that are the property of
# //  Mentor Graphics Corporation and are privileged, confidential,
# //  and exempt from disclosure under the Freedom of Information Act,
# //  5 U.S.C. Section 552. Furthermore, this information
# //  is prohibited from disclosure under the Trade Secrets Act,
# //  18 U.S.C. Section 1905.
# //
vlog -f run_rtl.f
# QuestaSim-64 vlog 10.7c Compiler 2018.08 Aug 17 2018
# Start time: 08:27:17 on Jun 09,2020
# vlog -reportprogress 300 -f run_rtl.f 
# -- Compiling module top
# -- Compiling module adder_test
# -- Compiling module rtl_adder
# 
# Top level modules:
# 	top
# End time: 08:27:17 on Jun 09,2020, Elapsed time: 0:00:00
# Errors: 0, Warnings: 0
vopt +acc top -o top_opt
# QuestaSim-64 vopt 10.7c Compiler 2018.08 Aug 17 2018
# Start time: 08:28:00 on Jun 09,2020
# vopt -reportprogress 300 "+acc" top -o top_opt 
# 
# Top level modules:
# 	top
# 
# Analyzing design...
# -- Loading module top
# -- Loading module adder_test
# -- Loading module rtl_adder
# Optimizing 3 design-units (inlining 0/3 module instances):
# -- Optimizing module adder_test(fast)
# -- Optimizing module rtl_adder(fast)
# -- Optimizing module top(fast)
# Optimized design name is top_opt
# End time: 08:28:01 on Jun 09,2020, Elapsed time: 0:00:01
# Errors: 0, Warnings: 0
vsim -c -do "run -all" top_opt
# vsim -c -do "run -all" top_opt 
# Start time: 08:28:07 on Jun 09,2020
# Loading sv_std.std
# Loading work.top(fast)
# Loading work.adder_test(fast)
# Loading work.rtl_adder(fast)
# run -all
# At    0.00 ns: 	 a=0  b=0  ci=0  sum=0  co=0
# At   10.00 ns: 	 a=1  b=0  ci=0  sum=1  co=0
# At   20.00 ns: 	 a=1  b=1  ci=0  sum=0  co=1
# At   30.00 ns: 	 a=1  b=1  ci=1  sum=1  co=1
# ** Note: $stop    : adder_test.sv(19)
#    Time: 40 ns  Iteration: 0  Instance: /top/test
# Break in Module adder_test at adder_test.sv line 19
source run_rtl.do
# QuestaSim-64 vlog 10.7c Compiler 2018.08 Aug 17 2018
# Start time: 08:32:01 on Jun 09,2020
# vlog -reportprogress 300 -f run_rtl.f 
# -- Compiling module top
# -- Compiling module adder_test
# -- Compiling module rtl_adder
# 
# Top level modules:
# 	top
# End time: 08:32:01 on Jun 09,2020, Elapsed time: 0:00:00
# Errors: 0, Warnings: 0
# End time: 08:32:04 on Jun 09,2020, Elapsed time: 0:03:57
# Errors: 0, Warnings: 0
# vsim -voptargs="+acc" top 
# Start time: 08:32:04 on Jun 09,2020
# ** Note: (vsim-3812) Design is being optimized...
# Loading sv_std.std
# Loading work.top(fast)
# Loading work.adder_test(fast)
# Loading work.rtl_adder(fast)
# At    0.00 ns: 	 a=0  b=0  ci=0  sum=0  co=0
# At   10.00 ns: 	 a=1  b=0  ci=0  sum=1  co=0
# At   20.00 ns: 	 a=1  b=1  ci=0  sum=0  co=1
# At   30.00 ns: 	 a=1  b=1  ci=1  sum=1  co=1
# ** Note: $stop    : adder_test.sv(19)
#    Time: 40 ns  Iteration: 0  Instance: /top/test
# Break in Module adder_test at adder_test.sv line 19
quit sim
# unknown switch: sim
quit -sim
# End time: 08:35:22 on Jun 09,2020, Elapsed time: 0:03:18
# Errors: 1, Warnings: 0
source run_gate.do
# QuestaSim-64 vlog 10.7c Compiler 2018.08 Aug 17 2018
# Start time: 08:36:17 on Jun 09,2020
# vlog -reportprogress 300 -f run_gate.f 
# -- Compiling module top
# -- Compiling module adder_test
# -- Compiling module gate_adder
# 
# Top level modules:
# 	top
# End time: 08:36:17 on Jun 09,2020, Elapsed time: 0:00:00
# Errors: 0, Warnings: 0
# vsim -voptargs="+acc" top 
# Start time: 08:36:17 on Jun 09,2020
# ** Note: (vsim-3813) Design is being optimized due to module recompilation...
# Loading sv_std.std
# Loading work.top(fast)
# Loading work.adder_test(fast)
# Loading work.gate_adder(fast)
# At    0.00 ns: 	 a=0  b=0  ci=0  sum=x  co=x
# At    2.00 ns: 	 a=0  b=0  ci=0  sum=0  co=0
# At   10.00 ns: 	 a=1  b=0  ci=0  sum=0  co=0
# At   12.00 ns: 	 a=1  b=0  ci=0  sum=1  co=0
# At   20.00 ns: 	 a=1  b=1  ci=0  sum=1  co=0
# At   22.00 ns: 	 a=1  b=1  ci=0  sum=0  co=1
# At   30.00 ns: 	 a=1  b=1  ci=1  sum=0  co=1
# At   32.00 ns: 	 a=1  b=1  ci=1  sum=1  co=1
# ** Note: $stop    : adder_test.sv(19)
#    Time: 40 ns  Iteration: 0  Instance: /top/test
# Break in Module adder_test at adder_test.sv line 19
quit -sim
# End time: 08:41:16 on Jun 09,2020, Elapsed time: 0:04:59
# Errors: 0, Warnings: 0
source run_gate2.do
# QuestaSim-64 vlog 10.7c Compiler 2018.08 Aug 17 2018
# Start time: 08:41:34 on Jun 09,2020
# vlog -reportprogress 300 -f run_gate2.f 
# -- Compiling module top
# -- Compiling module adder_test
# -- Compiling module gate2_adder
# 
# Top level modules:
# 	top
# End time: 08:41:34 on Jun 09,2020, Elapsed time: 0:00:00
# Errors: 0, Warnings: 0
# vsim -voptargs="+acc" top 
# Start time: 08:41:34 on Jun 09,2020
# ** Note: (vsim-3813) Design is being optimized due to module recompilation...
# Loading sv_std.std
# Loading work.top(fast)
# Loading work.adder_test(fast)
# Loading work.gate2_adder(fast)
# At    0.00 ns: 	 a=0  b=0  ci=0  sum=x  co=x
# At    2.00 ns: 	 a=0  b=0  ci=0  sum=x  co=0
# At   10.00 ns: 	 a=1  b=0  ci=0  sum=x  co=0
# At   20.00 ns: 	 a=1  b=1  ci=0  sum=x  co=0
# At   22.00 ns: 	 a=1  b=1  ci=0  sum=x  co=x
# At   30.00 ns: 	 a=1  b=1  ci=1  sum=x  co=x
# ** Note: $stop    : adder_test.sv(19)
#    Time: 40 ns  Iteration: 0  Instance: /top/test
# Break in Module adder_test at adder_test.sv line 19
quit -sim
# End time: 08:49:50 on Jun 09,2020, Elapsed time: 0:08:16
# Errors: 0, Warnings: 0
vlib work
# ** Warning: (vlib-34) Library already exists at "work".
vcom gate_vh_adder.vhd
# QuestaSim-64 vcom 10.7c Compiler 2018.08 Aug 17 2018
# Start time: 08:50:27 on Jun 09,2020
# vcom -reportprogress 300 gate_vh_adder.vhd 
# -- Loading package STANDARD
# -- Loading package TEXTIO
# -- Loading package std_logic_1164
# -- Compiling entity gate_vh_adder
# -- Compiling architecture behv of gate_vh_adder
# End time: 08:50:27 on Jun 09,2020, Elapsed time: 0:00:00
# Errors: 0, Warnings: 0
vlog +define+ GATE_VH_ADDER top.sv adder_test.sv
# QuestaSim-64 vlog 10.7c Compiler 2018.08 Aug 17 2018
# Start time: 08:50:57 on Jun 09,2020
# vlog -reportprogress 300 "+define+" GATE_VH_ADDER top.sv adder_test.sv 
# ** Error: (vlog-7) Failed to open design unit file "GATE_VH_ADDER" in read mode.
# No such file or directory. (errno = ENOENT)
# End time: 08:50:57 on Jun 09,2020, Elapsed time: 0:00:00
# Errors: 1, Warnings: 0
# /software/mentor/questa10.7c/questasim/linux_x86_64/vlog failed.
vlog +define+GATE_VH_ADDER top.sv adder_test.sv
# QuestaSim-64 vlog 10.7c Compiler 2018.08 Aug 17 2018
# Start time: 08:51:09 on Jun 09,2020
# vlog -reportprogress 300 "+define+GATE_VH_ADDER" top.sv adder_test.sv 
# -- Compiling module top
# -- Compiling module adder_test
# 
# Top level modules:
# 	top
# End time: 08:51:09 on Jun 09,2020, Elapsed time: 0:00:00
# Errors: 0, Warnings: 0
vopt +acc top -o top_opt
# QuestaSim-64 vopt 10.7c Compiler 2018.08 Aug 17 2018
# Start time: 08:51:40 on Jun 09,2020
# vopt -reportprogress 300 "+acc" top -o top_opt 
# 
# Top level modules:
# 	top
# 
# Analyzing design...
# -- Loading module top
# -- Loading module adder_test
# -- Loading package STANDARD
# -- Loading package TEXTIO
# -- Loading package std_logic_1164
# -- Loading entity gate_vh_adder
# -- Loading architecture behv of gate_vh_adder
# Incremental compilation check found no design-units (out of 3) may be reused.
# Optimizing 3 design-units (inlining 0/2 module instances, 0/1 architecture instances):
# -- Optimizing architecture behv of gate_vh_adder
# -- Optimizing module adder_test(fast)
# -- Optimizing module top(fast)
# Optimized design name is top_opt
# End time: 08:51:41 on Jun 09,2020, Elapsed time: 0:00:01
# Errors: 0, Warnings: 0
vsim -c -do "run -all" top_opt
# vsim -c -do "run -all" top_opt 
# Start time: 08:52:14 on Jun 09,2020
# Loading sv_std.std
# Loading work.top(fast)
# Loading work.adder_test(fast)
# Loading std.standard
# Loading std.textio(body)
# Loading ieee.std_logic_1164(body)
# Loading work.gate_vh_adder(behv)#1
# ** Error: (vsim-3060) Port 'ci' not found in VHDL entity (3rd connection).
#    Time: 0 ns  Iteration: 0  Instance: /top/dut File: top.sv Line: 27
# ** Error: (vsim-3060) Port 'co' not found in VHDL entity (5th connection).
#    Time: 0 ns  Iteration: 0  Instance: /top/dut File: top.sv Line: 27
# Error loading design
# End time: 08:52:14 on Jun 09,2020, Elapsed time: 0:00:00
# Errors: 2, Warnings: 0
vlib work
# ** Warning: (vlib-34) Library already exists at "work".
vcom gate_vh_adder.vhd
# QuestaSim-64 vcom 10.7c Compiler 2018.08 Aug 17 2018
# Start time: 08:53:45 on Jun 09,2020
# vcom -reportprogress 300 gate_vh_adder.vhd 
# -- Loading package STANDARD
# -- Loading package TEXTIO
# -- Loading package std_logic_1164
# -- Compiling entity gate_vh_adder
# -- Compiling architecture behv of gate_vh_adder
# End time: 08:53:45 on Jun 09,2020, Elapsed time: 0:00:00
# Errors: 0, Warnings: 0
vlog +define+GATE_VH_ADDER top.sv adder_test.sv
# QuestaSim-64 vlog 10.7c Compiler 2018.08 Aug 17 2018
# Start time: 08:53:50 on Jun 09,2020
# vlog -reportprogress 300 "+define+GATE_VH_ADDER" top.sv adder_test.sv 
# -- Compiling module top
# -- Compiling module adder_test
# 
# Top level modules:
# 	top
# End time: 08:53:51 on Jun 09,2020, Elapsed time: 0:00:01
# Errors: 0, Warnings: 0
vopt +acc top -o top_opt
# QuestaSim-64 vopt 10.7c Compiler 2018.08 Aug 17 2018
# Start time: 08:53:58 on Jun 09,2020
# vopt -reportprogress 300 "+acc" top -o top_opt 
# 
# Top level modules:
# 	top
# 
# Analyzing design...
# -- Loading module top
# -- Loading module adder_test
# -- Loading package STANDARD
# -- Loading package TEXTIO
# -- Loading package std_logic_1164
# -- Loading entity gate_vh_adder
# -- Loading architecture behv of gate_vh_adder
# Incremental compilation check found 2 design-units (out of 3) may be reused.
# Optimizing 1 design-unit (inlining 0/2 module instances, 0/1 architecture instances):
# -- Optimizing architecture behv of gate_vh_adder
# Optimized design name is top_opt
# End time: 08:53:59 on Jun 09,2020, Elapsed time: 0:00:01
# Errors: 0, Warnings: 0
vsim -c -do "run -all" top_opt
# vsim -c -do "run -all" top_opt 
# Start time: 08:54:02 on Jun 09,2020
# Loading sv_std.std
# Loading work.top(fast)
# Loading work.adder_test(fast)
# Loading std.standard
# Loading std.textio(body)
# Loading ieee.std_logic_1164(body)
# Loading work.gate_vh_adder(behv)#1
# run -all
# At    0.00 ns: 	 a=0  b=0  ci=0  sum=0  co=0
# At   10.00 ns: 	 a=1  b=0  ci=0  sum=1  co=1
# At   20.00 ns: 	 a=1  b=1  ci=0  sum=0  co=1
# At   30.00 ns: 	 a=1  b=1  ci=1  sum=1  co=1
# ** Note: $stop    : adder_test.sv(19)
#    Time: 40 ns  Iteration: 0  Instance: /top/test
# Break in Module adder_test at adder_test.sv line 19
vlib
# Usage: vlib -help
#        vlib [-short | -dos | -long | -unix ]
#             [-type (directory|flat)]
#             [-compress | -nocompress]
#             [-dirpath] <path>
#             [-unnamed_designs <count>] [(-lock|-unlock) <design>]
#             [-locklib|-unlocklib] <library_name>
vcom
vlog
vopt
# Optimization canceled
vsim
# Load canceled
work
# invalid command name "work"
gate_vh_adder.vhd
# invalid command name "gate_vh_adder.vhd"
+define+GATE_VH_ADDER top.sv adder_test.sv
# invalid command name "+define+GATE_VH_ADDER"
+acc top -o top_opt
# invalid command name "+acc"
-c -do "run -all" top_opt
# invalid command name "-c"
quit -sim
# End time: 08:57:51 on Jun 09,2020, Elapsed time: 0:03:49
# Errors: 8, Warnings: 0
vlib work
# ** Warning: (vlib-34) Library already exists at "work".
vcom gate_vh_adder.vhd
# QuestaSim-64 vcom 10.7c Compiler 2018.08 Aug 17 2018
# Start time: 08:58:24 on Jun 09,2020
# vcom -reportprogress 300 gate_vh_adder.vhd 
# -- Loading package STANDARD
# -- Loading package TEXTIO
# -- Loading package std_logic_1164
# -- Compiling entity gate_vh_adder
# -- Compiling architecture behv of gate_vh_adder
# End time: 08:58:24 on Jun 09,2020, Elapsed time: 0:00:00
# Errors: 0, Warnings: 0
vlog +define+GATE_VH_ADDER top.sv adder_test.sv
# QuestaSim-64 vlog 10.7c Compiler 2018.08 Aug 17 2018
# Start time: 08:58:34 on Jun 09,2020
# vlog -reportprogress 300 "+define+GATE_VH_ADDER" top.sv adder_test.sv 
# -- Compiling module top
# -- Compiling module adder_test
# 
# Top level modules:
# 	top
# End time: 08:58:34 on Jun 09,2020, Elapsed time: 0:00:00
# Errors: 0, Warnings: 0
vopt +acc top -o top_opt
# QuestaSim-64 vopt 10.7c Compiler 2018.08 Aug 17 2018
# Start time: 08:58:43 on Jun 09,2020
# vopt -reportprogress 300 "+acc" top -o top_opt 
# 
# Top level modules:
# 	top
# 
# Analyzing design...
# -- Loading module top
# -- Loading module adder_test
# -- Loading package STANDARD
# -- Loading package TEXTIO
# -- Loading package std_logic_1164
# -- Loading entity gate_vh_adder
# -- Loading architecture behv of gate_vh_adder
# Incremental compilation check found 2 design-units (out of 3) may be reused.
# Optimizing 1 design-unit (inlining 0/2 module instances, 0/1 architecture instances):
# -- Optimizing architecture behv of gate_vh_adder
# Optimized design name is top_opt
# End time: 08:58:43 on Jun 09,2020, Elapsed time: 0:00:00
# Errors: 0, Warnings: 0
vsim -c -do "run -all" top_opt
# vsim -c -do "run -all" top_opt 
# Start time: 08:58:49 on Jun 09,2020
# Loading sv_std.std
# Loading work.top(fast)
# Loading work.adder_test(fast)
# Loading std.standard
# Loading std.textio(body)
# Loading ieee.std_logic_1164(body)
# Loading work.gate_vh_adder(behv)#1
# run -all
# At    0.00 ns: 	 a=0  b=0  ci=0  sum=0  co=0
# At   10.00 ns: 	 a=1  b=0  ci=0  sum=1  co=0
# At   20.00 ns: 	 a=1  b=1  ci=0  sum=0  co=1
# At   30.00 ns: 	 a=1  b=1  ci=1  sum=1  co=1
# ** Note: $stop    : adder_test.sv(19)
#    Time: 40 ns  Iteration: 0  Instance: /top/test
# Break in Module adder_test at adder_test.sv line 19
quit -sim
# End time: 09:26:16 on Jun 09,2020, Elapsed time: 0:27:27
# Errors: 0, Warnings: 0
vlib work
# ** Warning: (vlib-34) Library already exists at "work".
vcom gate_vh_adder.vhd
# QuestaSim-64 vcom 10.7c Compiler 2018.08 Aug 17 2018
# Start time: 09:26:53 on Jun 09,2020
# vcom -reportprogress 300 gate_vh_adder.vhd 
# -- Loading package STANDARD
# -- Loading package TEXTIO
# -- Loading package std_logic_1164
# -- Compiling entity gate_vh_adder
# -- Compiling architecture behv of gate_vh_adder
# End time: 09:26:53 on Jun 09,2020, Elapsed time: 0:00:00
# Errors: 0, Warnings: 0
vcom rca_vh_adder.vhd
# QuestaSim-64 vcom 10.7c Compiler 2018.08 Aug 17 2018
# Start time: 09:27:00 on Jun 09,2020
# vcom -reportprogress 300 rca_vh_adder.vhd 
# -- Loading package STANDARD
# -- Loading package TEXTIO
# -- Loading package std_logic_1164
# -- Compiling entity rca_vh_adder
# -- Compiling architecture behv of rca_vh_adder
# ** Error: rca_vh_adder.vhd(38): (vcom-1136) Unknown identifier "interal_carry".
# ** Error: rca_vh_adder.vhd(38): (vcom-1436) Actual expression (indexed name) of formal "ci" is not globally static.
# ** Error: rca_vh_adder.vhd(43): near "<=": (vcom-1576) expecting ';'.
# ** Note: rca_vh_adder.vhd(45): VHDL Compiler exiting
# End time: 09:27:00 on Jun 09,2020, Elapsed time: 0:00:00
# Errors: 3, Warnings: 0
# /software/mentor/questa10.7c/questasim/linux_x86_64/vcom failed.
vcom rca_vh_adder.vhd
# QuestaSim-64 vcom 10.7c Compiler 2018.08 Aug 17 2018
# Start time: 09:27:28 on Jun 09,2020
# vcom -reportprogress 300 rca_vh_adder.vhd 
# -- Loading package STANDARD
# -- Loading package TEXTIO
# -- Loading package std_logic_1164
# -- Compiling entity rca_vh_adder
# -- Compiling architecture behv of rca_vh_adder
# ** Error: rca_vh_adder.vhd(43): near "<=": (vcom-1576) expecting ';'.
# ** Note: rca_vh_adder.vhd(45): VHDL Compiler exiting
# End time: 09:27:28 on Jun 09,2020, Elapsed time: 0:00:00
# Errors: 1, Warnings: 0
# /software/mentor/questa10.7c/questasim/linux_x86_64/vcom failed.
vcom rca_vh_adder.vhd
# QuestaSim-64 vcom 10.7c Compiler 2018.08 Aug 17 2018
# Start time: 09:27:51 on Jun 09,2020
# vcom -reportprogress 300 rca_vh_adder.vhd 
# -- Loading package STANDARD
# -- Loading package TEXTIO
# -- Loading package std_logic_1164
# -- Compiling entity rca_vh_adder
# -- Compiling architecture behv of rca_vh_adder
# End time: 09:27:51 on Jun 09,2020, Elapsed time: 0:00:00
# Errors: 0, Warnings: 0
vlog +define+RCA_VH_ADDER top_n.sv adder_n_test.sv
# QuestaSim-64 vlog 10.7c Compiler 2018.08 Aug 17 2018
# Start time: 09:28:52 on Jun 09,2020
# vlog -reportprogress 300 "+define+RCA_VH_ADDER" top_n.sv adder_n_test.sv 
# -- Compiling module top_n
# -- Compiling module adder_n_test
# 
# Top level modules:
# 	top_n
# End time: 09:28:52 on Jun 09,2020, Elapsed time: 0:00:00
# Errors: 0, Warnings: 0
vopt +acc top_n -o top_n_opt
# QuestaSim-64 vopt 10.7c Compiler 2018.08 Aug 17 2018
# Start time: 09:29:19 on Jun 09,2020
# vopt -reportprogress 300 "+acc" top_n -o top_n_opt 
# 
# Top level modules:
# 	top_n
# 
# Analyzing design...
# -- Loading module top_n
# -- Loading module adder_n_test
# -- Loading package STANDARD
# -- Loading package TEXTIO
# -- Loading package std_logic_1164
# -- Loading entity rca_vh_adder
# -- Loading architecture behv of rca_vh_adder
# -- Loading entity gate_vh_adder
# -- Loading architecture behv of gate_vh_adder
# Optimizing 4 design-units (inlining 0/2 module instances, 0/5 architecture instances):
# -- Optimizing architecture behv of gate_vh_adder
# -- Optimizing architecture behv of rca_vh_adder
# -- Optimizing module adder_n_test(fast)
# -- Optimizing module top_n(fast)
# Optimized design name is top_n_opt
# End time: 09:29:19 on Jun 09,2020, Elapsed time: 0:00:00
# Errors: 0, Warnings: 0
vsim -c -do "run -all" top_n_opt
# vsim -c -do "run -all" top_n_opt 
# Start time: 09:29:48 on Jun 09,2020
# Loading sv_std.std
# Loading work.top_n(fast)
# Loading work.adder_n_test(fast)
# Loading std.standard
# Loading std.textio(body)
# Loading ieee.std_logic_1164(body)
# Loading work.rca_vh_adder(behv)#1
# Loading work.gate_vh_adder(behv)#1
# ** Fatal: (vsim-3363) The array length (4) of VHDL port 'A' does not match the width (16) of its Verilog connection (1st connection).
#    Time: 0 ns  Iteration: 0  Instance: /top_n/dut File: top_n.sv Line: 30
# FATAL ERROR while loading design
# Error loading design
# End time: 09:29:48 on Jun 09,2020, Elapsed time: 0:00:00
# Errors: 1, Warnings: 0
vsim -c -do "run -all" top_n_opt
# vsim -c -do "run -all" top_n_opt 
# Start time: 09:30:38 on Jun 09,2020
# Loading sv_std.std
# Loading work.top_n(fast)
# Loading work.adder_n_test(fast)
# Loading std.standard
# Loading std.textio(body)
# Loading ieee.std_logic_1164(body)
# Loading work.rca_vh_adder(behv)#1
# Loading work.gate_vh_adder(behv)#1
# ** Fatal: (vsim-3363) The array length (4) of VHDL port 'A' does not match the width (16) of its Verilog connection (1st connection).
#    Time: 0 ns  Iteration: 0  Instance: /top_n/dut File: top_n.sv Line: 30
# FATAL ERROR while loading design
# Error loading design
# End time: 09:30:39 on Jun 09,2020, Elapsed time: 0:00:01
# Errors: 1, Warnings: 0
vlib work
# ** Warning: (vlib-34) Library already exists at "work".
vcom gate_vh_adder.vhd
# QuestaSim-64 vcom 10.7c Compiler 2018.08 Aug 17 2018
# Start time: 09:30:59 on Jun 09,2020
# vcom -reportprogress 300 gate_vh_adder.vhd 
# -- Loading package STANDARD
# -- Loading package TEXTIO
# -- Loading package std_logic_1164
# -- Compiling entity gate_vh_adder
# -- Compiling architecture behv of gate_vh_adder
# End time: 09:30:59 on Jun 09,2020, Elapsed time: 0:00:00
# Errors: 0, Warnings: 0
vcom rca_vh_adder.vhd
# QuestaSim-64 vcom 10.7c Compiler 2018.08 Aug 17 2018
# Start time: 09:31:02 on Jun 09,2020
# vcom -reportprogress 300 rca_vh_adder.vhd 
# -- Loading package STANDARD
# -- Loading package TEXTIO
# -- Loading package std_logic_1164
# -- Compiling entity rca_vh_adder
# -- Compiling architecture behv of rca_vh_adder
# End time: 09:31:03 on Jun 09,2020, Elapsed time: 0:00:01
# Errors: 0, Warnings: 0
vlog +define+RCA_VH_ADDER top_n.sv adder_n_test.sv
# QuestaSim-64 vlog 10.7c Compiler 2018.08 Aug 17 2018
# Start time: 09:31:07 on Jun 09,2020
# vlog -reportprogress 300 "+define+RCA_VH_ADDER" top_n.sv adder_n_test.sv 
# -- Compiling module top_n
# -- Compiling module adder_n_test
# 
# Top level modules:
# 	top_n
# End time: 09:31:07 on Jun 09,2020, Elapsed time: 0:00:00
# Errors: 0, Warnings: 0
vopt +acc top_n -o top_n_opt
# QuestaSim-64 vopt 10.7c Compiler 2018.08 Aug 17 2018
# Start time: 09:31:11 on Jun 09,2020
# vopt -reportprogress 300 "+acc" top_n -o top_n_opt 
# 
# Top level modules:
# 	top_n
# 
# Analyzing design...
# -- Loading module top_n
# -- Loading module adder_n_test
# -- Loading package STANDARD
# -- Loading package TEXTIO
# -- Loading package std_logic_1164
# -- Loading entity rca_vh_adder
# -- Loading architecture behv of rca_vh_adder
# -- Loading entity gate_vh_adder
# -- Loading architecture behv of gate_vh_adder
# Incremental compilation check found 1 design-unit (out of 4) may be reused.
# Optimizing 3 design-units (inlining 0/2 module instances, 0/17 architecture instances):
# -- Optimizing module adder_n_test(fast)
# -- Optimizing module top_n(fast)
# -- Optimizing architecture behv of rca_vh_adder
# Optimized design name is top_n_opt
# End time: 09:31:11 on Jun 09,2020, Elapsed time: 0:00:00
# Errors: 0, Warnings: 0
vsim -c -do "run -all" top_n_opt
# vsim -c -do "run -all" top_n_opt 
# Start time: 09:31:14 on Jun 09,2020
# Loading sv_std.std
# Loading work.top_n(fast)
# Loading work.adder_n_test(fast)
# Loading std.standard
# Loading std.textio(body)
# Loading ieee.std_logic_1164(body)
# Loading work.rca_vh_adder(behv)#1
# Loading work.gate_vh_adder(behv)#1
# run -all
# 
# Initializing inputs...
# 
# Start applying inputs...
# At 30ns:  a=    0  b=    0 ci=0 : sum=    0 (0000000000000000), co=0 (0) - OK
# At 40ns:  a=11730  b=61557 ci=1 : sum= 7752 (0001111001001000), co=1 (1) - OK
# At 50ns:  a=22065  b=20934 ci=0 : sum=42999 (1010011111110111), co=0 (0) - OK
# At 60ns:  a=23512  b=34053 ci=1 : sum=57566 (1110000011011110), co=0 (0) - OK
# At 70ns:  a=25883  b=17672 ci=0 : sum=43555 (1010101000100011), co=0 (0) - OK
# At 80ns:  a=64983  b= 7301 ci=1 : sum= 6749 (0001101001011101), co=1 (1) - OK
# At 90ns:  a= 8377  b=62600 ci=0 : sum= 5441 (0001010101000001), co=1 (1) - OK
# At 100ns:  a=43577  b=18485 ci=1 : sum=62063 (1111001001101111), co=0 (0) - OK
# At 110ns:  a=19405  b=58918 ci=0 : sum=12787 (0011000111110011), co=1 (1) - OK
# At 120ns:  a=  704  b=26834 ci=0 : sum=27538 (0110101110010010), co=0 (0) - OK
# At 130ns:  a= 2197  b=61865 ci=1 : sum=64063 (1111101000111111), co=0 (0) - OK
# At 140ns:  a=56245  b=32596 ci=0 : sum=23305 (0101101100001001), co=1 (1) - OK
# At 150ns:  a=61408  b=19387 ci=1 : sum=15260 (0011101110011100), co=1 (1) - OK
# At 160ns:  a=56563  b=  881 ci=1 : sum=57445 (1110000001100101), co=0 (0) - OK
# At 170ns:  a=62207  b=52194 ci=0 : sum=48865 (1011111011100001), co=1 (1) - OK
# At 180ns:  a= 7622  b=18283 ci=1 : sum=25906 (0110010100110010), co=0 (0) - OK
# At 190ns:  a=58702  b=14826 ci=0 : sum= 7992 (0001111100111000), co=1 (1) - OK
# At 200ns:  a= 2818  b=56190 ci=0 : sum=59008 (1110011010000000), co=0 (0) - OK
# At 210ns:  a=56838  b=18606 ci=0 : sum= 9908 (0010011010110100), co=1 (1) - OK
# At 220ns:  a=58658  b=58784 ci=0 : sum=51906 (1100101011000010), co=1 (1) - OK
# At 230ns:  a=65253  b=50463 ci=1 : sum=50181 (1100010000000101), co=1 (1) - OK
# At 240ns:  a=18825  b=52760 ci=0 : sum= 6049 (0001011110100001), co=1 (1) - OK
# At 250ns:  a=13979  b=21569 ci=1 : sum=35549 (1000101011011101), co=0 (0) - OK
# At 260ns:  a=18635  b=40759 ci=1 : sum=59395 (1110100000000011), co=0 (0) - OK
# At 270ns:  a=16112  b=32428 ci=0 : sum=48540 (1011110110011100), co=0 (0) - OK
# At 280ns:  a= 6658  b=33196 ci=0 : sum=39854 (1001101110101110), co=0 (0) - OK
# At 290ns:  a=  938  b=60968 ci=0 : sum=61906 (1111000111010010), co=0 (0) - OK
# At 300ns:  a=33419  b= 8563 ci=1 : sum=41983 (1010001111111111), co=0 (0) - OK
# At 310ns:  a= 9794  b=13058 ci=0 : sum=22852 (0101100101000100), co=0 (0) - OK
# At 320ns:  a=28612  b=37654 ci=0 : sum=  730 (0000001011011010), co=1 (1) - OK
# At 330ns:  a=50088  b=19017 ci=1 : sum= 3570 (0000110111110010), co=1 (1) - OK
# At 340ns:  a=53988  b=51453 ci=1 : sum=39906 (1001101111100010), co=1 (1) - OK
# At 350ns:  a=42067  b=60923 ci=1 : sum=37455 (1001001001001111), co=1 (1) - OK
# At 360ns:  a=13247  b=39410 ci=0 : sum=52657 (1100110110110001), co=0 (0) - OK
# At 370ns:  a=27153  b=39250 ci=0 : sum=  867 (0000001101100011), co=1 (1) - OK
# At 380ns:  a=34502  b=14809 ci=1 : sum=49312 (1100000010100000), co=0 (0) - OK
# At 390ns:  a=35903  b=58304 ci=0 : sum=28671 (0110111111111111), co=1 (1) - OK
# At 400ns:  a=48773  b=34466 ci=0 : sum=17703 (0100010100100111), co=1 (1) - OK
# At 410ns:  a=37301  b=64395 ci=1 : sum=36161 (1000110101000001), co=1 (1) - OK
# At 420ns:  a=37597  b= 9069 ci=1 : sum=46667 (1011011001001011), co=0 (0) - OK
# At 430ns:  a=25298  b= 9322 ci=0 : sum=34620 (1000011100111100), co=0 (0) - OK
# At 440ns:  a=54817  b=53408 ci=0 : sum=42689 (1010011011000001), co=1 (1) - OK
# At 450ns:  a=56166  b=43508 ci=0 : sum=34138 (1000010101011010), co=1 (1) - OK
# At 460ns:  a=56030  b=36449 ci=1 : sum=26944 (0110100101000000), co=1 (1) - OK
# At 470ns:  a=58313  b=17432 ci=0 : sum=10209 (0010011111100001), co=1 (1) - OK
# At 480ns:  a=59778  b=32279 ci=1 : sum=26522 (0110011110011010), co=1 (1) - OK
# At 490ns:  a=43787  b=23996 ci=0 : sum= 2247 (0000100011000111), co=1 (1) - OK
# At 500ns:  a= 4487  b=14234 ci=0 : sum=18721 (0100100100100001), co=0 (0) - OK
# At 510ns:  a=59542  b= 5030 ci=0 : sum=64572 (1111110000111100), co=0 (0) - OK
# At 520ns:  a=  860  b=37397 ci=1 : sum=38258 (1001010101110010), co=0 (0) - OK
# At 530ns:  a=  702  b=45763 ci=1 : sum=46466 (1011010110000010), co=0 (0) - OK
# At 540ns:  a= 1375  b=57836 ci=0 : sum=59211 (1110011101001011), co=0 (0) - OK
# At 550ns:  a=32790  b=44943 ci=1 : sum=12198 (0010111110100110), co=1 (1) - OK
# At 560ns:  a=48572  b= 9255 ci=1 : sum=57828 (1110000111100100), co=0 (0) - OK
# At 570ns:  a=64421  b=19892 ci=0 : sum=18777 (0100100101011001), co=1 (1) - OK
# At 580ns:  a=20563  b=12588 ci=0 : sum=33151 (1000000101111111), co=0 (0) - OK
# At 590ns:  a=14676  b=59218 ci=0 : sum= 8358 (0010000010100110), co=1 (1) - OK
# At 600ns:  a=40047  b=10957 ci=1 : sum=51005 (1100011100111101), co=0 (0) - OK
# At 610ns:  a=60930  b=24513 ci=1 : sum=19908 (0100110111000100), co=1 (1) - OK
# At 620ns:  a=35980  b=46494 ci=0 : sum=16938 (0100001000101010), co=1 (1) - OK
# At 630ns:  a= 8214  b=14603 ci=1 : sum=22818 (0101100100100010), co=0 (0) - OK
# At 640ns:  a=24331  b=27624 ci=0 : sum=51955 (1100101011110011), co=0 (0) - OK
# At 650ns:  a=29417  b=37370 ci=0 : sum= 1251 (0000010011100011), co=1 (1) - OK
# At 660ns:  a=26653  b=18973 ci=1 : sum=45627 (1011001000111011), co=0 (0) - OK
# At 670ns:  a=19997  b=17097 ci=1 : sum=37095 (1001000011100111), co=0 (0) - OK
# At 680ns:  a=55864  b=42573 ci=1 : sum=32902 (1000000010000110), co=1 (1) - OK
