Lab_3/saiftest/inccomp.vcd
$date
	Tue Apr 21 11:24:35 2020
$end
$version
	ModelSim Version 6.5c
$end
$timescale
	1ps
$end
$scope module tbinccomp $end
$scope module DUT $end
$var wire 1 ! C [7] $end
$var wire 1 " C [6] $end
$var wire 1 # C [5] $end
$var wire 1 $ C [4] $end
$var wire 1 % C [3] $end
$var wire 1 & C [2] $end
$var wire 1 ' C [1] $end
$var wire 1 ( C [0] $end
$var wire 1 ) ck $end
$var wire 1 * rst $end
$var wire 1 + INCA $end
$var wire 1 , INCB $end
$var wire 1 - N8 $end
$var wire 1 . N9 $end
$var wire 1 / N10 $end
$var wire 1 0 N11 $end
$var wire 1 1 N12 $end
$var wire 1 2 N13 $end
$var wire 1 3 N14 $end
$var wire 1 4 N15 $end
$var wire 1 5 N33 $end
$var wire 1 6 N34 $end
$var wire 1 7 N35 $end
$var wire 1 8 N36 $end
$var wire 1 9 N37 $end
$var wire 1 : N38 $end
$var wire 1 ; N39 $end
$var wire 1 < N40 $end
$var wire 1 = n41 $end
$var wire 1 > n42 $end
$var wire 1 ? n43 $end
$var wire 1 @ n44 $end
$var wire 1 A n45 $end
$var wire 1 B n46 $end
$var wire 1 C n47 $end
$var wire 1 D n48 $end
$var wire 1 E n49 $end
$var wire 1 F n50 $end
$var wire 1 G n51 $end
$var wire 1 H n52 $end
$var wire 1 I n53 $end
$var wire 1 J n54 $end
$var wire 1 K n55 $end
$var wire 1 L n56 $end
$var wire 1 M n57 $end
$var wire 1 N n58 $end
$var wire 1 O n59 $end
$var wire 1 P n60 $end
$var wire 1 Q n61 $end
$var wire 1 R n62 $end
$var wire 1 S n63 $end
$var wire 1 T n64 $end
$var wire 1 U n66 $end
$var wire 1 V n67 $end
$var wire 1 W n68 $end
$var wire 1 X n69 $end
$var wire 1 Y n70 $end
$var wire 1 Z n71 $end
$var wire 1 [ n72 $end
$var wire 1 \ n73 $end
$var wire 1 ] lt_gt_38_B_0_ $end
$var wire 1 ^ lt_gt_38_B_1_ $end
$var wire 1 _ lt_gt_38_B_2_ $end
$var wire 1 ` lt_gt_38_B_3_ $end
$var wire 1 a lt_gt_38_B_4_ $end
$var wire 1 b lt_gt_38_B_5_ $end
$var wire 1 c lt_gt_38_B_6_ $end
$var wire 1 d lt_gt_38_B_7_ $end
$var wire 1 e lt_gt_38_A_0_ $end
$var wire 1 f lt_gt_38_A_1_ $end
$var wire 1 g lt_gt_38_A_2_ $end
$var wire 1 h lt_gt_38_A_3_ $end
$var wire 1 i lt_gt_38_A_4_ $end
$var wire 1 j lt_gt_38_A_5_ $end
$var wire 1 k lt_gt_38_A_6_ $end
$var wire 1 l lt_gt_38_A_7_ $end
$var wire 1 m n90 $end
$var wire 1 n n91 $end
$var wire 1 o n92 $end
$var wire 1 p n93 $end
$var wire 1 q n94 $end
$var wire 1 r n95 $end
$var wire 1 s n96 $end
$var wire 1 t n97 $end
$var wire 1 u n98 $end
$var wire 1 v n99 $end
$var wire 1 w n100 $end
$var wire 1 x n101 $end
$var wire 1 y n102 $end
$var wire 1 z n103 $end
$var wire 1 { n104 $end
$var wire 1 | n105 $end
$var wire 1 } n106 $end
$var wire 1 ~ n107 $end
$var wire 1 !! n108 $end
$var wire 1 "! n109 $end
$var wire 1 #! n110 $end
$var wire 1 $! n111 $end
$var wire 1 %! n112 $end
$var wire 1 &! n113 $end
$var wire 1 '! n114 $end
$var wire 1 (! n115 $end
$var wire 1 )! n116 $end
$var wire 1 *! n117 $end
$var wire 1 +! n118 $end
$var wire 1 ,! n119 $end
$var wire 1 -! n120 $end
$var wire 1 .! n121 $end
$var wire 1 /! n122 $end
$var wire 1 0! n123 $end
$var wire 1 1! n124 $end
$var wire 1 2! n125 $end
$var wire 1 3! n126 $end
$var wire 1 4! n127 $end
$var wire 1 5! n128 $end
$var wire 1 6! n129 $end
$var wire 1 7! n130 $end
$var wire 1 8! n131 $end
$var wire 1 9! n132 $end
$var wire 1 :! n133 $end
$var wire 1 ;! n134 $end
$var wire 1 <! n135 $end
$var wire 1 =! syncha [7] $end
$var wire 1 >! syncha [6] $end
$var wire 1 ?! syncha [5] $end
$var wire 1 @! syncha [4] $end
$var wire 1 A! syncha [3] $end
$var wire 1 B! syncha [2] $end
$var wire 1 C! syncha [1] $end
$var wire 1 D! syncha [0] $end
$var wire 1 E! synchb [7] $end
$var wire 1 F! synchb [6] $end
$var wire 1 G! synchb [5] $end
$var wire 1 H! synchb [4] $end
$var wire 1 I! synchb [3] $end
$var wire 1 J! synchb [2] $end
$var wire 1 K! synchb [1] $end
$var wire 1 L! synchb [0] $end
$var wire 1 M! r68_carry [7] $end
$var wire 1 N! r68_carry [6] $end
$var wire 1 O! r68_carry [5] $end
$var wire 1 P! r68_carry [4] $end
$var wire 1 Q! r68_carry [3] $end
$var wire 1 R! r68_carry [2] $end
$var wire 1 S! r67_carry [7] $end
$var wire 1 T! r67_carry [6] $end
$var wire 1 U! r67_carry [5] $end
$var wire 1 V! r67_carry [4] $end
$var wire 1 W! r67_carry [3] $end
$var wire 1 X! r67_carry [2] $end
$upscope $end
$upscope $end
$enddefinitions $end
#0
$dumpvars
x(
x'
x&
x%
x$
x#
x"
x!
x-
x.
x/
x0
x1
x2
x3
x4
x5
x6
x7
x8
x9
x:
x;
x<
x=
x>
x?
x@
xA
xB
xC
xD
xE
xF
xG
xH
xI
xJ
xK
xL
xM
xN
xO
xP
xQ
xR
xS
xT
xU
xV
xW
xX
xY
xZ
x[
x\
x]
x^
x_
x`
xa
xb
xc
xd
xe
xf
xg
xh
xi
xj
xk
xl
xm
xn
xo
xp
xq
xr
xs
xt
xu
xv
xw
xx
xy
xz
x{
x|
x}
x~
x!!
x"!
x#!
x$!
x%!
x&!
x'!
x(!
x)!
x*!
x+!
x,!
x-!
x.!
x/!
x0!
x1!
x2!
x3!
x4!
x5!
x6!
x7!
x8!
x9!
x:!
x;!
x<!
xD!
xC!
xB!
xA!
x@!
x?!
x>!
x=!
xL!
xK!
xJ!
xI!
xH!
xG!
xF!
xE!
xR!
xQ!
xP!
xO!
xN!
xM!
xX!
xW!
xV!
xU!
xT!
xS!
0,
0+
1*
1)
$end
#87
0<!
#88
0q
#167
1n
#174
0!
0"
0#
0$
0%
0&
0'
0(
#177
1p
#180
0E!
0=!
#182
0F!
0G!
0H!
0I!
0J!
0K!
0>!
0?!
0@!
0A!
0B!
0C!
#186
0L!
0D!
#215
15
1-
#234
0M!
0S!
0;!
03!
#236
0N!
0O!
0P!
0Q!
0R!
0T!
0U!
0V!
0W!
0X!
#270
06
0.
#296
1:!
12!
#300
0<
04
#314
0;
0:
09
08
07
03
02
01
00
0/
#325
14!
1,!
#340
15!
16!
17!
18!
19!
1-!
1.!
1/!
10!
11!
#354
1E
1F
1G
1H
1I
1J
1K
1L
1M
1N
1O
1P
1Q
1R
1S
1T
#356
1=
1>
1?
1@
1A
1B
1C
1D
#390
0U
0V
0W
0X
0Y
0Z
0[
0\
#406
1}
1!!
1|
#411
1s
1u
1w
1y
1{
1m
1r
1t
1v
1x
1z
#416
1o
#417
1~
#432
0^
#435
0f
0e
#440
0k
0j
0i
0h
0g
0c
0b
0a
0`
0_
#443
0d
0]
#446
0l
#447
0*!
#471
1+!
#504
1)!
#556
0(!
#594
1'!
#646
0&!
#683
1%!
#717
0$!
#756
1"!
#797
0#!
#2500
0)
#5000
1)
#7000
0*
#7159
1<!
#7500
0)
#10000
1)
#12000
1+
#12082
1q
#12093
0~
#12125
1]
#12150
1*!
#12184
0p
#12195
0)!
#12232
1(!
#12284
0'!
#12322
1&!
#12359
0%!
#12392
1$!
#12445
0"!
#12485
1#!
#12500
0)
#12523
1p
#12546
0n
#12610
1U
#15000
1)
#15085
0T
#15088
0=
#15118
1(
#15132
1D!
#15156
0-
#15179
13!
#15208
1.
#15229
02!
#15239
1~
#15265
0]
#15269
0*!
#15278
0U
#15300
0|
#15326
1)!
#15333
1^
#15343
1V
#15378
0(!
#15380
0)!
#15416
1'!
#15417
1(!
#15468
0&!
#15469
0'!
#15505
1%!
#15507
1&!
#15539
0$!
#15544
0%!
#15577
1$!
#15578
1"!
#15619
0#!
#15630
0"!
#15670
1#!
#17500
0)
#20000
1)
#20085
0S
#20087
1T
#20088
0>
#20089
1=
#20104
0(
#20114
0D!
#20118
1'
#20127
1C!
#20143
1-
#20162
03!
#20240
0~
#20272
1]
#20287
1U
#20297
1*!
#22500
0)
#25000
1)
#25085
0T
#25088
0=
#25118
1(
#25132
1D!
#25156
0-
#25177
0.
#25179
13!
#25198
1X!
#25203
12!
#25239
1~
#25252
1|
#25265
0]
#25268
1/
#25269
0*!
#25278
0U
0^
#25286
0V
#25289
01!
#25341
1)!
#25364
0z
#25400
1_
#25409
1W
#27500
0)
#28000
1,
#28084
0!!
#28122
1e
#30000
1)
#30085
0L
0R
#30087
1S
1T
#30088
0?
#30089
1=
1>
#30104
0'
0(
#30111
0C!
#30114
0D!
#30118
1&
#30127
1B!
#30132
1L!
#30143
1-
#30156
05
#30162
03!
#30165
0X!
0/
#30179
1;!
#30186
1W!
#30191
11!
#30208
16
#30220
1/
#30222
0W!
#30228
1!!
#30229
0:!
#30240
0~
#30241
01!
#30246
1z
#30257
0e
#30272
1]
#30275
0_
#30283
0W
#30287
1U
#30291
0(!
#30300
0}
#30316
0z
#30320
1*!
#30329
1'!
#30338
1f
#30352
1_
#30362
1W
#30365
0)!
#30366
0*!
#30369
1(!
#30381
0&!
#30418
1%!
#30421
0'!
#30424
1)!
#30452
0$!
#30459
1&!
#30491
1"!
#30496
0%!
#30529
1$!
#30532
0#!
#30582
0"!
#30590
0p
#30599
1n
#30622
1#!
#30648
0U
#30657
0W
#30660
1p
#30670
1V
#30683
0n
#30716
0V
#30747
1U
#30748
1W
#32500
0)
#35000
1)
#35085
0K
0T
#35087
1L
#35088
0=
#35114
0L!
#35118
1(
#35127
1K!
#35132
1D!
#35143
15
#35156
0-
#35162
0;!
#35179
13!
#35208
1.
#35229
02!
#35232
0!!
#35239
1~
#35265
0]
#35270
1e
#35276
0+!
#35285
0U
#35300
0|
#35333
1^
#35344
1V
#37500
0)
#40000
1)
#40085
0L
0S
#40087
1T
#40088
0>
#40089
1=
#40104
0(
#40114
0D!
#40118
1'
#40127
1C!
#40132
1L!
#40143
1-
#40156
05
#40162
03!
#40177
06
#40179
1;!
#40198
1R!
#40203
1:!
#40228
1!!
#40240
0~
#40252
1}
#40257
0e
#40268
17
#40272
1]
#40281
0f
#40287
1U
#40289
09!
#40301
1+!
#40341
0)!
#40347
1*!
#40364
0{
#40400
1g
#42500
0)
#45000
1)
#45085
0J
0T
#45087
1K
1L
#45088
0=
#45111
0K!
#45114
0L!
#45118
1(
#45127
1J!
#45132
1D!
#45143
15
#45156
0-
#45162
0;!
#45165
0R!
07
#45177
0.
#45179
13!
#45186
1Q!
#45191
19!
#45198
1X!
#45203
12!
#45220
17
#45222
0Q!
#45232
0!!
#45237
0/
#45239
1~
#45241
09!
#45246
1{
#45252
1|
#45259
1W!
#45263
11!
#45265
0]
#45269
0*!
#45270
1e
#45275
0g
#45278
0^
#45285
0U
#45286
0V
#45316
0{
#45318
1z
#45329
10
#45343
1)!
#45347
0_
#45350
00!
#45352
1g
#45362
0W
#45395
0(!
#45425
0x
#45433
1'!
#45461
1`
#45470
1X
#45485
0&!
#45494
1(!
#45522
1%!
#45539
0'!
#45556
0$!
#45577
1&!
#45595
1"!
#45614
0%!
#45636
0#!
#45647
1$!
#45694
0p
#45700
0"!
#45703
1n
#45740
1#!
#45752
0X
#45774
1U
1W
#45778
1p
#45801
0n
#45847
0U
0W
#45865
1X
#47500
0)
#50000
0+
1)
#50074
0|
#50078
0z
#50081
1x
#50083
0~
#50085
0L
0Q
#50087
1R
1S
1T
#50088
0@
#50089
1=
1>
1?
#50104
0&
0'
0(
#50107
1^
#50110
0`
#50111
0B!
0C!
#50113
0X
#50114
0D!
1_
#50115
1]
#50118
1%
1V
#50125
1W
#50126
0(!
#50127
1A!
#50132
1L!
1U
#50139
1|
#50143
1-
#50144
1z
#50150
1~
#50152
0)!
#50156
05
#50161
1/
#50162
0x
03!
#50164
1'!
#50165
0W!
0X!
00
0^
#50168
0V
#50173
0_
#50176
0]
#50179
1;!
#50181
0W
#50182
01!
#50186
1V!
#50189
0U
#50190
1(!
#50191
10!
#50198
1`
#50208
16
1X
#50216
0&!
#50220
10
#50222
0V!
#50227
1)!
#50228
1!!
#50229
0:!
#50241
00!
#50242
0'!
#50243
0/
#50253
1%!
#50257
0e
#50269
11!
#50280
1&!
#50287
0$!
#50300
0}
#50317
0%!
#50326
1"!
#50338
1f
#50350
1$!
#50367
0#!
#50375
0+!
#50403
0"!
#50434
1n
#50443
1#!
#50488
0X
#50504
0n
#50569
1X
#52500
0)
#55000
1)
#55085
0K
#55087
1L
#55114
0L!
#55127
1K!
#55143
15
#55162
0;!
#55232
0!!
#55270
1e
#57500
0)
#60000
1)
#60085
0L
#60132
1L!
#60156
05
#60177
06
#60179
1;!
#60198
1R!
#60203
1:!
#60228
1!!
#60237
07
#60252
1}
#60257
0e
#60259
1Q!
#60263
19!
#60281
0f
#60317
1+!
#60318
1{
#60329
18
#60347
0g
#60350
08!
#60425
0y
#60461
1h
#60504
0(!
#60542
1'!
#60594
0&!
#60631
1%!
#60665
0$!
#60704
1"!
#60745
0#!
#60803
0p
#60812
1n
#62500
0)
#65000
1)
#65085
0I
#65087
1J
1K
1L
#65111
0J!
0K!
#65114
0L!
#65127
1I!
#65143
15
#65161
17
#65162
0;!
#65165
0Q!
0R!
08
#65182
09!
#65186
1P!
#65191
18!
#65220
18
#65222
0P!
#65232
0!!
#65241
08!
#65243
07
#65246
1y
#65257
0{
#65269
19!
#65270
1e
#65275
0h
#65287
1U
#65293
1g
#65295
0X
#65314
1W
#65316
0y
#65324
1{
#65334
1(!
#65352
1h
#65353
0g
#65360
0W
#65372
1X
#65381
0'!
#65389
0(!
#65419
1&!
#65427
1'!
#65456
0%!
#65479
0&!
#65489
1$!
#65516
1%!
#65542
0"!
#65550
0$!
#65582
1#!
#65589
1"!
#65630
0#!
#67500
0)
#70000
1)
#70085
0L
#70088
0=
#70118
1(
#70132
1L!
#70156
05
#70179
1;!
#70208
16
#70228
1!!
#70229
0:!
#70257
0e
#70268
0U
#70300
0}
#70338
1f
#70355
1V
#70375
0+!
#72500
0)
#75000
1)
#75085
0K
#75087
1L
#75088
0>
#75089
1=
#75104
0(
#75114
0L!
#75118
1'
#75127
1K!
#75143
15
#75162
0;!
#75232
0!!
#75270
1e
#75287
1U
#77500
0)
#80000
1)
#80085
0L
#80088
0=
#80118
1(
#80132
1L!
#80156
05
#80177
06
#80179
1;!
#80198
1R!
#80203
1:!
#80228
1!!
#80252
1}
#80257
0e
#80268
17
0U
#80281
0f
#80289
09!
#80292
0V
#80317
1+!
#80364
0{
#80400
1g
#80421
1W
#82500
0)
#85000
1)
#85085
0J
#85087
1K
1L
#85088
0?
#85089
1=
1>
#85104
0'
0(
#85111
0K!
#85114
0L!
#85118
1&
#85127
1J!
#85143
15
#85162
0;!
#85165
0R!
07
#85186
1Q!
#85191
19!
#85220
17
#85222
0Q!
#85225
08
#85232
0!!
#85241
09!
#85246
1{
#85251
18!
#85270
1e
#85275
0g
#85277
18
#85287
1U
#85288
0W
#85298
08!
#85306
1y
#85316
0{
#85335
0h
#85352
1g
#85355
0X
#85373
0y
#85374
1W
#85394
1(!
#85409
1h
#85429
1X
#85441
0'!
#85446
0(!
#85479
1&!
#85484
1'!
#85516
0%!
#85536
0&!
#85549
1$!
#85573
1%!
#85602
0"!
#85607
0$!
#85642
1#!
#85646
1"!
#85687
0#!
#87500
0)
#90000
1)
#90085
0L
#90088
0=
#90118
1(
#90132
1L!
#90156
05
#90179
1;!
#90208
16
#90228
1!!
#90229
0:!
#90257
0e
#90268
0U
#90300
0}
#90338
1f
#90355
1V
#90375
0+!
#92500
0)
#95000
1)
#95085
0K
#95087
1L
#95088
0>
#95089
1=
#95104
0(
#95114
0L!
#95118
1'
#95127
1K!
#95143
15
#95162
0;!
#95232
0!!
#95270
1e
#95287
1U
#97500
0)
#100000
1)
#100085
0L
#100088
0=
#100118
1(
#100132
1L!
#100156
05
#100177
06
#100179
1;!
#100198
1R!
#100203
1:!
#100228
1!!
#100237
07
#100252
1}
#100257
0e
#100259
1Q!
#100263
19!
#100268
0U
#100281
0f
#100292
0V
#100298
08
#100317
1+!
#100318
1{
#100320
1P!
#100324
18!
#100347
0g
#100360
0W
#100379
1y
#100390
19
#100408
0h
#100411
07!
#100428
0X
#100467
1(!
#100486
0w
#100522
1i
#100543
1Y
#102500
0)
#105000
1)
#105085
0H
#105087
1I
1J
1K
1L
#105088
0A
#105089
1=
1>
1?
1@
#105104
0%
0&
0'
0(
#105111
0I!
0J!
0K!
#105114
0L!
#105118
1$
#105127
1H!
#105143
15
#105161
18
17
#105162
0;!
#105165
0P!
0Q!
0R!
09
#105182
08!
09!
#105186
1O!
#105191
17!
#105220
19
#105222
0O!
#105232
0!!
#105241
07!
#105243
08
07
#105246
1w
#105257
0y
0{
#105269
18!
19!
#105270
1e
#105275
0i
#105287
1U
#105288
0Y
#105289
0'!
#105293
1h
1g
#105312
1X
#105314
1W
#105316
0w
#105324
1y
1{
#105327
1&!
#105330
0(!
#105352
1i
#105353
0h
0g
#105360
0W
#105364
0%!
#105365
0X
#105374
1Y
#105382
1'!
#105397
1$!
#105412
1(!
#105428
0&!
#105450
0"!
#105465
1%!
#105490
1#!
#105499
0$!
#105528
1p
#105538
1"!
#105551
0n
#105579
0#!
#105584
0U
#105597
0Y
#105615
1X
#105637
0p
#105646
1n
#105695
0X
#105717
1U
1Y
#107500
0)
#110000
1)
#110085
0L
#110088
0=
#110118
1(
#110132
1L!
#110156
05
#110179
1;!
#110208
16
#110228
1!!
#110229
0:!
#110257
0e
#110268
0U
#110300
0}
#110338
1f
#110355
1V
#110375
0+!
#112500
0)
#115000
1)
#115085
0K
#115087
1L
#115088
0>
#115089
1=
#115104
0(
#115114
0L!
#115118
1'
#115127
1K!
#115143
15
#115162
0;!
#115232
0!!
#115270
1e
#115287
1U
#117500
0)
#120000
1)
#120085
0L
#120088
0=
#120118
1(
#120132
1L!
#120156
05
#120177
06
#120179
1;!
#120198
1R!
#120203
1:!
#120228
1!!
#120252
1}
#120257
0e
#120268
17
0U
#120281
0f
#120289
09!
#120292
0V
#120317
1+!
#120364
0{
#120400
1g
#120421
1W
#122500
0)
#125000
1)
#125085
0J
#125087
1K
1L
#125088
0?
#125089
1=
1>
#125104
0'
0(
#125111
0K!
#125114
0L!
#125118
1&
#125127
1J!
#125143
15
#125162
0;!
#125165
0R!
07
#125186
1Q!
#125191
19!
#125220
17
#125222
0Q!
#125232
0!!
#125241
09!
#125246
1{
#125270
1e
#125275
0g
#125287
1U
#125288
0W
#125316
0{
#125352
1g
#125374
1W
#127500
0)
#130000
1)
#130085
0L
#130088
0=
#130118
1(
#130132
1L!
#130156
05
#130179
1;!
#130208
16
#130228
1!!
#130229
0:!
#130257
0e
#130268
0U
#130300
0}
#130338
1f
#130355
1V
#130375
0+!
#132500
0)
#135000
1)
#135085
0K
#135087
1L
#135088
0>
#135089
1=
#135104
0(
#135114
0L!
#135118
1'
#135127
1K!
#135143
15
#135162
0;!
#135232
0!!
#135270
1e
#135287
1U
#137500
0)
#140000
1)
#140085
0L
#140088
0=
#140118
1(
#140132
1L!
#140156
05
#140177
06
#140179
1;!
#140198
1R!
#140203
1:!
#140228
1!!
#140237
07
#140252
1}
#140257
0e
#140259
1Q!
#140263
19!
#140268
0U
#140281
0f
#140292
0V
#140317
1+!
#140318
1{
#140329
18
#140347
0g
#140350
08!
#140360
0W
#140425
0y
#140461
1h
#140480
1X
#140504
0(!
#142500
0)
#145000
1)
#145085
0I
#145087
1J
1K
1L
#145088
0@
#145089
1=
1>
1?
#145104
0&
0'
0(
#145111
0J!
0K!
#145114
0L!
#145118
1%
#145127
1I!
#145143
15
#145161
17
#145162
0;!
#145165
0Q!
0R!
08
#145182
09!
#145186
1P!
#145191
18!
#145220
18
#145222
0P!
#145225
09
#145232
0!!
#145241
08!
#145243
07
#145246
1y
#145251
17!
#145257
0{
#145269
19!
#145270
1e
#145275
0h
#145277
19
#145287
1U
#145293
1g
#145295
0X
#145298
07!
#145306
1w
#145314
1W
#145316
0y
#145324
1{
#145334
1(!
#145335
0i
#145348
0Y
#145352
1h
#145353
0g
#145360
0W
#145372
1X
#145373
0w
#145381
0'!
#145389
0(!
#145409
1i
#145419
1&!
#145431
1Y
#145439
1'!
#145456
0%!
#145485
0&!
#145489
1$!
#145522
1%!
#145542
0"!
#145556
0$!
#145582
1#!
#145595
1"!
#145636
0#!
#145643
0n
#145703
1n
#147500
0)
#150000
1)
#150085
0L
#150088
0=
#150118
1(
#150132
1L!
#150156
05
#150179
1;!
#150208
16
#150228
1!!
#150229
0:!
#150257
0e
#150268
0U
#150300
0}
#150338
1f
#150355
1V
#150375
0+!
#152500
0)
#155000
1)
#155085
0K
#155087
1L
#155088
0>
#155089
1=
#155104
0(
#155114
0L!
#155118
1'
#155127
1K!
#155143
15
#155162
0;!
#155232
0!!
#155270
1e
#155287
1U
#157500
0)
#160000
1)
#160085
0L
#160088
0=
#160118
1(
#160132
1L!
#160156
05
#160177
06
#160179
1;!
#160198
1R!
#160203
1:!
#160228
1!!
#160252
1}
#160257
0e
#160268
17
0U
#160281
0f
#160289
09!
#160292
0V
#160317
1+!
#160364
0{
#160400
1g
#160421
1W
#162500
0)
#165000
1)
#165085
0J
#165087
1K
1L
#165088
0?
#165089
1=
1>
#165104
0'
0(
#165111
0K!
#165114
0L!
#165118
1&
#165127
1J!
#165143
15
#165162
0;!
#165165
0R!
07
#165186
1Q!
#165191
19!
#165220
17
#165222
0Q!
#165225
08
#165232
0!!
#165241
09!
#165246
1{
#165251
18!
#165270
1e
#165275
0g
#165277
18
#165287
1U
#165288
0W
#165298
08!
#165306
1y
#165316
0{
#165335
0h
#165352
1g
#165355
0X
#165373
0y
#165374
1W
#165394
1(!
#165409
1h
#165429
1X
#165446
0(!
#167500
0)
#170000
1)
#170085
0L
#170088
0=
#170118
1(
#170132
1L!
#170156
05
#170179
1;!
#170208
16
#170228
1!!
#170229
0:!
#170257
0e
#170268
0U
#170300
0}
#170338
1f
#170355
1V
#170375
0+!
#172500
0)
#175000
1)
#175085
0K
#175087
1L
#175088
0>
#175089
1=
#175104
0(
#175114
0L!
#175118
1'
#175127
1K!
#175143
15
#175162
0;!
#175232
0!!
#175270
1e
#175287
1U
#177500
0)
#180000
1)
#180085
0L
#180088
0=
#180118
1(
#180132
1L!
#180156
05
#180177
06
#180179
1;!
#180198
1R!
#180203
1:!
#180228
1!!
#180237
07
#180252
1}
#180257
0e
#180259
1Q!
#180263
19!
#180268
0U
#180281
0f
#180292
0V
#180298
08
#180317
1+!
#180318
1{
#180320
1P!
#180324
18!
#180347
0g
#180359
09
#180360
0W
#180379
1y
#180381
1O!
#180385
17!
#180408
0h
#180428
0X
#180440
1w
#180451
1:
#180467
1(!
#180469
0i
#180472
06!
#180482
0Y
#180512
0'!
#180547
0u
#180550
1&!
#180583
1j
#180604
1Z
#182500
0)
#185000
1)
#185085
0G
#185087
1H
1I
1J
1K
1L
#185088
0B
#185089
1=
1>
1?
1@
1A
#185104
0$
0%
0&
0'
0(
#185111
0H!
0I!
0J!
0K!
#185114
0L!
#185118
1#
#185127
1G!
#185143
15
#185161
19
18
17
#185162
0;!
#185165
0O!
0P!
0Q!
0R!
0:
#185182
07!
08!
09!
#185186
1N!
#185191
16!
#185220
1:
#185222
0N!
#185232
0!!
#185241
06!
#185243
09
08
07
#185246
1u
#185257
0w
0y
0{
#185269
17!
18!
19!
#185270
1e
#185275
0j
#185281
0%!
#185287
1U
#185288
0Z
#185293
1i
1h
1g
#185312
1X
#185314
1Y
1W
1$!
#185316
0u
#185323
1'!
#185324
1w
1y
1{
#185330
0(!
#185352
1j
#185353
0i
0h
0g
#185360
0Y
0W
#185365
0X
#185366
1%!
#185367
0"!
#185369
0&!
#185374
1Z
#185400
0$!
#185407
1#!
#185412
1(!
#185439
1"!
#185445
1p
#185457
0'!
#185468
0n
#185480
0#!
#185495
1&!
#185501
0U
#185514
0Z
#185532
1X
#185538
0p
#185547
1n
#185596
0X
#185618
1U
1Z
#187500
0)
#190000
1)
#190085
0L
#190088
0=
#190118
1(
#190132
1L!
#190156
05
#190179
1;!
#190208
16
#190228
1!!
#190229
0:!
#190257
0e
#190268
0U
#190300
0}
#190338
1f
#190355
1V
#190375
0+!
#192500
0)
#195000
1)
#195085
0K
#195087
1L
#195088
0>
#195089
1=
#195104
0(
#195114
0L!
#195118
1'
#195127
1K!
#195143
15
#195162
0;!
#195232
0!!
#195270
1e
#195287
1U
#197500
0)
#200000
1)
#200085
0L
#200088
0=
#200118
1(
#200132
1L!
#200156
05
#200177
06
#200179
1;!
#200198
1R!
#200203
1:!
#200228
1!!
#200252
1}
#200257
0e
#200268
17
0U
#200281
0f
#200289
09!
#200292
0V
#200317
1+!
#200364
0{
#200400
1g
#200421
1W
#202500
0)
#205000
1)
#205085
0J
#205087
1K
1L
#205088
0?
#205089
1=
1>
#205104
0'
0(
#205111
0K!
#205114
0L!
#205118
1&
#205127
1J!
#205143
15
#205162
0;!
#205165
0R!
07
#205186
1Q!
#205191
19!
#205220
17
#205222
0Q!
#205232
0!!
#205241
09!
#205246
1{
#205270
1e
#205275
0g
#205287
1U
#205288
0W
#205316
0{
#205352
1g
#205374
1W
#207500
0)
#210000
1)
#210085
0L
#210088
0=
#210118
1(
#210132
1L!
#210156
05
#210179
1;!
#210208
16
#210228
1!!
#210229
0:!
#210257
0e
#210268
0U
#210300
0}
#210338
1f
#210355
1V
#210375
0+!
#212500
0)
#215000
1)
#215085
0K
#215087
1L
#215088
0>
#215089
1=
#215104
0(
#215114
0L!
#215118
1'
#215127
1K!
#215143
15
#215162
0;!
#215232
0!!
#215270
1e
#215287
1U
#217500
0)
#220000
1)
#220085
0L
#220088
0=
#220118
1(
#220132
1L!
#220156
05
#220177
06
#220179
1;!
#220198
1R!
#220203
1:!
#220228
1!!
#220237
07
#220252
1}
#220257
0e
#220259
1Q!
#220263
19!
#220268
0U
#220281
0f
#220292
0V
#220317
1+!
#220318
1{
#220329
18
#220347
0g
#220350
08!
#220360
0W
#220425
0y
#220461
1h
#220480
1X
#220504
0(!
#220542
1'!
#220585
0&!
#222500
0)
#225000
1)
#225085
0I
#225087
1J
1K
1L
#225088
0@
#225089
1=
1>
1?
#225104
0&
0'
0(
#225111
0J!
0K!
#225114
0L!
#225118
1%
#225127
1I!
#225143
15
#225161
17
#225162
0;!
#225165
0Q!
0R!
08
#225182
09!
#225186
1P!
#225191
18!
#225220
18
#225222
0P!
#225232
0!!
#225241
08!
#225243
07
#225246
1y
#225257
0{
#225269
19!
#225270
1e
#225275
0h
#225287
1U
#225293
1g
#225295
0X
#225314
1W
#225316
0y
#225324
1{
#225334
1(!
#225352
1h
#225353
0g
#225360
0W
#225372
1X
#225381
0'!
#225389
0(!
#225419
1&!
#225427
1'!
#225470
0&!
#227500
0)
#230000
1)
#230085
0L
#230088
0=
#230118
1(
#230132
1L!
#230156
05
#230179
1;!
#230208
16
#230228
1!!
#230229
0:!
#230257
0e
#230268
0U
#230300
0}
#230338
1f
#230355
1V
#230375
0+!
#232500
0)
#235000
1)
#235085
0K
#235087
1L
#235088
0>
#235089
1=
#235104
0(
#235114
0L!
#235118
1'
#235127
1K!
#235143
15
#235162
0;!
#235232
0!!
#235270
1e
#235287
1U
#237500
0)
#240000
1)
#240085
0L
#240088
0=
#240118
1(
#240132
1L!
#240156
05
#240177
06
#240179
1;!
#240198
1R!
#240203
1:!
#240228
1!!
#240252
1}
#240257
0e
#240268
17
0U
#240281
0f
#240289
09!
#240292
0V
#240317
1+!
#240364
0{
#240400
1g
#240421
1W
#242500
0)
#245000
1)
#245085
0J
#245087
1K
1L
#245088
0?
#245089
1=
1>
#245104
0'
0(
#245111
0K!
#245114
0L!
#245118
1&
#245127
1J!
#245143
15
#245162
0;!
#245165
0R!
07
#245186
1Q!
#245191
19!
#245220
17
#245222
0Q!
#245225
08
#245232
0!!
#245241
09!
#245246
1{
#245251
18!
#245270
1e
#245275
0g
#245277
18
#245287
1U
#245288
0W
#245298
08!
#245306
1y
#245316
0{
#245335
0h
#245352
1g
#245355
0X
#245373
0y
#245374
1W
#245394
1(!
#245409
1h
#245429
1X
#245441
0'!
#245446
0(!
#245479
1&!
#245484
1'!
#245527
0&!
#247500
0)
#250000
1)
#250085
0L
#250088
0=
#250118
1(
#250132
1L!
#250156
05
#250179
1;!
#250208
16
#250228
1!!
#250229
0:!
#250257
0e
#250268
0U
#250300
0}
#250338
1f
#250355
1V
#250375
0+!
#252500
0)
#255000
1)
#255085
0K
#255087
1L
#255088
0>
#255089
1=
#255104
0(
#255114
0L!
#255118
1'
#255127
1K!
#255143
15
#255162
0;!
#255232
0!!
#255270
1e
#255287
1U
#257500
0)
#260000
1)
#260085
0L
#260088
0=
#260118
1(
#260132
1L!
#260156
05
#260177
06
#260179
1;!
#260198
1R!
#260203
1:!
#260228
1!!
#260237
07
#260252
1}
#260257
0e
#260259
1Q!
#260263
19!
#260268
0U
#260281
0f
#260292
0V
#260298
08
#260317
1+!
#260318
1{
#260320
1P!
#260324
18!
#260347
0g
#260360
0W
#260379
1y
#260390
19
#260408
0h
#260411
07!
#260428
0X
#260467
1(!
#260486
0w
#260522
1i
#260543
1Y
#262500
0)
#265000
1)
#265085
0H
#265087
1I
1J
1K
1L
#265088
0A
#265089
1=
1>
1?
1@
#265104
0%
0&
0'
0(
